%!Adobe-FontList 1.13
%Locale:0x412

%BeginFont
Handler:DirectoryHandler
FontType:Invalid
OutlineFileName:D:\DR2_P\SFreedom_Dev\Movie\flash\Font\batang.swf
FileModTime:1267777639
%EndFont

%BeginFont
Handler:DirectoryHandler
FontType:Invalid
OutlineFileName:D:\DR2_P\SFreedom_Dev\Movie\flash\Font\nanoom.swf
FileModTime:1267777639
%EndFont

